<?xml version="1.0" encoding="UTF-8"?>
<!-- Generator: Adobe Illustrator 19.0.0, SVG Export Plug-In . SVG Version: 6.00 Build 0)  -->
<svg version="1.1" id="Capa_1" xmlns="http://www.w3.org/2000/svg" xmlns:xlink="http://www.w3.org/1999/xlink" x="0px" y="0px" viewBox="0 0 700.7 239" style="enable-background:new 0 0 700.7 239;" xml:space="preserve">
<style type="text/css">
	.st0{fill:#808285;}
	.st1{fill:url(#XMLID_55_);}
	.st2{fill:url(#XMLID_56_);}
	.st3{fill:url(#XMLID_57_);}
	.st4{fill:url(#XMLID_58_);}
	.st5{fill:url(#XMLID_59_);}
	.st6{fill:url(#XMLID_60_);}
	.st7{fill:url(#XMLID_61_);}
	.st8{fill:url(#XMLID_62_);}
	.st9{fill:url(#XMLID_63_);}
	.st10{fill:url(#XMLID_64_);}
	.st11{fill:url(#XMLID_65_);}
	.st12{fill:url(#XMLID_66_);}
	.st13{fill:url(#XMLID_67_);}
	.st14{fill:url(#XMLID_68_);}
	.st15{fill:url(#XMLID_69_);}
	.st16{fill:url(#XMLID_70_);}
	.st17{fill:url(#XMLID_71_);}
	.st18{fill:url(#XMLID_72_);}
	.st19{fill:url(#XMLID_73_);}
	.st20{fill:url(#XMLID_74_);}
	.st21{fill:url(#XMLID_75_);}
	.st22{fill:url(#XMLID_76_);}
	.st23{fill:url(#XMLID_77_);}
	.st24{fill:#8D9092;}
	.st25{fill:#FFFFFF;}
</style>
<g id="XMLID_1_">
	<path id="XMLID_1118_" class="st0" d="M451,140H448H202.5v48.6H448h2.9H698V140H451z M696,186.6H451v-44.5h245V186.6z"/>
	<g id="XMLID_877_">
		<path id="XMLID_1112_" class="st0" d="M213.1,210.4h7v5.3c-1.6,1.4-3.7,2.2-5.9,2.2c-6,0-8.6-4.3-8.6-8.6c0-2.5,0.8-4.8,2.4-6.4    c1.5-1.6,3.7-2.4,6.2-2.4c2.3,0,4.7,0.9,6.3,2.5l0.2,0.1l1.2-1.3l-0.1-0.1c-2-2-4.7-3.1-7.5-3.1c-3.1,0-5.7,1-7.7,2.9    c-1.9,1.9-2.9,4.5-2.9,7.6c0,5.2,3.3,10.4,10.5,10.4c2.9,0,5.5-1.1,7.7-3.3l0.1-0.1v-7.8h-8.8V210.4z"/>
		<path id="XMLID_1109_" class="st0" d="M231.6,204.7c-4.2,0-7.4,3.2-7.4,7.5c0,4.4,3,7.5,7.4,7.5c2.5,0,4.9-1.1,6.3-2.8l0.1-0.2    l-1.3-1.1l-0.1,0.2c-1.1,1.4-3.3,2.1-4.9,2.1c-3,0-5.2-1.9-5.5-4.8h12.7l0-0.2c0.2-2.5-0.3-4.5-1.6-6    C235.9,205.5,233.9,204.7,231.6,204.7z M237.2,211.4h-11c0.4-3,2.6-5,5.5-5C235,206.4,237,208.3,237.2,211.4z"/>
		<path id="XMLID_1108_" class="st0" d="M247.2,211.3l-0.5-0.1c-1.7-0.3-3.9-0.7-4-2.3c0-0.5,0.2-1,0.5-1.3c0.7-0.7,1.9-1.1,3.4-1.1    c1.6,0,3,0.2,4.4,1.4l0.1,0.1l1.1-1.2l-0.1-0.1c-1.4-1.3-3.2-1.9-5.4-1.9c-2,0-3.8,0.6-4.8,1.6c-0.7,0.7-1,1.6-1,2.6    c0,3.1,3,3.6,5.7,4c2.6,0.4,4.5,0.9,4.4,2.6c-0.1,2.2-3,2.5-4.2,2.5c-2.1,0-4-0.9-5-2.3l-0.1-0.2l-1.3,1.2l0.1,0.1    c1.2,1.8,3.6,2.9,6.4,2.9c1.4,0,5.9-0.3,6-4.1C253.1,212.3,249.7,211.7,247.2,211.3z"/>
		<path id="XMLID_1107_" class="st0" d="M263,217.4c-0.8,0.4-1.5,0.6-2.1,0.6c-2,0-2.4-1.1-2.4-3.1v-8.4h4.8V205h-4.8v-4.3l-1.8,0.2    v4.1h-3v1.6h3v8.4c0,3.2,1.3,4.8,4.2,4.8c0.8,0,1.7-0.2,2.7-0.7l0.2-0.1l-0.6-1.5L263,217.4z"/>
		<path id="XMLID_1106_" class="st0" d="M265.1,200.6c0,0.9,0.7,1.3,1.3,1.3c0.7,0,1.3-0.5,1.3-1.3    C267.7,198.8,265.1,198.8,265.1,200.6z"/>
		<rect id="XMLID_1105_" x="265.5" y="204.9" class="st0" width="1.8" height="14.6"/>
		<polygon id="XMLID_1104_" class="st0" points="280.3,199.5 280.3,199.5 280.3,199.2 278.2,199.2 276.1,202.5 276.1,202.9     277.7,202.9   "/>
		<path id="XMLID_1101_" class="st0" d="M277.2,204.7c-4.3,0-7.4,3.2-7.4,7.6c0,4.4,3,7.4,7.4,7.4c4.3,0,7.4-3.1,7.4-7.4    C284.6,207.9,281.5,204.7,277.2,204.7z M277.2,217.9c-3.3,0-5.6-2.3-5.6-5.7c0-3.4,2.4-5.8,5.6-5.8c3.2,0,5.6,2.5,5.6,5.8    C282.8,215.6,280.5,217.9,277.2,217.9z"/>
		<path id="XMLID_1100_" class="st0" d="M293.3,204.7c-2,0-3.8,0.9-4.8,2.3v-2h-1.8v14.5h1.8v-8.1c0-2.8,2-4.9,4.7-4.9    c1.5,0,2.8,0.4,3.6,1.2c0.8,0.8,1.2,2,1.2,3.4v8.3h1.8v-8.4C299.9,207.2,297.3,204.7,293.3,204.7z"/>
		<path id="XMLID_1097_" class="st0" d="M321.8,207.5c-1.2-1.7-3.2-2.7-5.6-2.7c-4.2,0-7.4,3.2-7.4,7.4c0,4.3,3.2,7.5,7.4,7.5    c2.3,0,4.2-1,5.6-2.8v2.5h1.8V205h-1.8V207.5z M316.2,217.9c-3.2,0-5.6-2.4-5.6-5.7c0-3.3,2.3-5.7,5.6-5.7c3.9,0,5.7,3,5.7,5.7    c0,1.5-0.5,2.9-1.4,3.9C319.4,217.3,317.9,217.9,316.2,217.9z"/>
		<path id="XMLID_1096_" class="st0" d="M342.9,204.7c-2.3,0-4.3,1.2-5.2,3.1c-0.9-2-2.8-3.1-5.2-3.1c-1.9,0-3.4,0.8-4.4,2.1l0-1.8    h-1.7v14.5h1.8v-8.6c0-2.6,1.8-4.5,4.3-4.5c2.6,0,4.3,1.8,4.3,4.5v8.6h1.8v-8.6c0-2.7,1.8-4.5,4.3-4.5c2.5,0,4.3,1.8,4.3,4.4v8.7    h1.8v-8.7C349,207.2,346.5,204.7,342.9,204.7z"/>
		<path id="XMLID_1093_" class="st0" d="M359.3,204.7c-2.5,0-4.5,1-5.7,2.8v-8.4h-1.8v20.4h1.8v-2.6c1.2,1.8,3.4,2.8,5.7,2.8    c4.3,0,7.3-3,7.3-7.5C366.6,207.7,363.6,204.7,359.3,204.7z M359.2,206.5c2.7,0,5.6,1.5,5.6,5.7c0,3.5-2.2,5.7-5.6,5.7    c-3.2,0-5.6-2.4-5.6-5.7C353.6,208.9,356,206.5,359.2,206.5z"/>
		<path id="XMLID_1092_" class="st0" d="M368.5,200.6c0,0.9,0.7,1.3,1.3,1.3s1.3-0.5,1.3-1.3C371.1,198.8,368.5,198.8,368.5,200.6z"/>
		<rect id="XMLID_1091_" x="368.9" y="204.9" class="st0" width="1.8" height="14.6"/>
		<path id="XMLID_1088_" class="st0" d="M380.1,204.7c-4.2,0-7.4,3.2-7.4,7.5c0,4.4,3,7.5,7.4,7.5c2.5,0,4.9-1.1,6.3-2.8l0.1-0.2    l-1.3-1.1l-0.1,0.2c-1.1,1.4-3.3,2.1-4.9,2.1c-3,0-5.2-1.9-5.5-4.8h12.7l0-0.2c0.2-2.5-0.3-4.5-1.6-6    C384.4,205.5,382.4,204.7,380.1,204.7z M385.7,211.4h-11c0.4-3,2.6-5,5.5-5C383.5,206.4,385.5,208.3,385.7,211.4z"/>
		<path id="XMLID_1087_" class="st0" d="M396.4,204.7c-2,0-3.8,0.9-4.8,2.3v-2h-1.8v14.5h1.8v-8.1c0-2.8,2-4.9,4.7-4.9    c1.5,0,2.8,0.4,3.6,1.2c0.8,0.8,1.2,2,1.2,3.4v8.3h1.8v-8.4C403,207.2,400.4,204.7,396.4,204.7z"/>
		<path id="XMLID_1020_" class="st0" d="M413.1,217.4c-0.8,0.4-1.5,0.6-2.1,0.6c-2,0-2.4-1.1-2.4-3.1v-8.4h4.8V205h-4.8v-4.3    l-1.8,0.2v4.1h-3v1.6h3v8.4c0,3.2,1.3,4.8,4.2,4.8c0.8,0,1.7-0.2,2.7-0.7l0.2-0.1l-0.6-1.5L413.1,217.4z"/>
		<path id="XMLID_951_" class="st0" d="M427.7,207.5c-1.2-1.7-3.2-2.7-5.6-2.7c-4.2,0-7.4,3.2-7.4,7.4c0,4.3,3.2,7.5,7.4,7.5    c2.3,0,4.2-1,5.6-2.8v2.5h1.8V205h-1.8V207.5z M422.1,217.9c-3.2,0-5.6-2.4-5.6-5.7c0-3.3,2.3-5.7,5.6-5.7c3.9,0,5.7,3,5.7,5.7    c0,1.5-0.5,2.9-1.4,3.9C425.4,217.3,423.9,217.9,422.1,217.9z"/>
		<rect id="XMLID_950_" x="432.2" y="199.1" class="st0" width="1.8" height="20.4"/>
		<path id="XMLID_949_" class="st0" d="M436.5,218.4c0,0.5,0.2,0.9,0.6,1.1l-0.9,2.5h1.7l1.2-3.1c0.1-0.2,0.1-0.4,0.1-0.6    C439.2,216.7,436.5,216.7,436.5,218.4z"/>
		<path id="XMLID_948_" class="st0" d="M454.8,211.3l-0.5-0.1c-1.7-0.3-3.9-0.7-4-2.3c0-0.5,0.2-1,0.5-1.3c0.7-0.7,1.9-1.1,3.4-1.1    c1.6,0,3,0.2,4.4,1.4l0.1,0.1l1.1-1.2l-0.1-0.1c-1.4-1.3-3.2-1.9-5.4-1.9c-2,0-3.8,0.6-4.8,1.6c-0.7,0.7-1,1.6-1,2.6    c0,3.1,3,3.6,5.7,4c2.6,0.4,4.5,0.9,4.4,2.6c-0.1,2.2-3,2.5-4.2,2.5c-2.1,0-4-0.9-5-2.3l-0.1-0.2l-1.3,1.2l0.1,0.1    c1.2,1.8,3.6,2.9,6.4,2.9c1.4,0,5.9-0.3,6-4.1C460.6,212.3,457.3,211.7,454.8,211.3z"/>
		<path id="XMLID_945_" class="st0" d="M469.2,204.7c-4.3,0-7.4,3.2-7.4,7.6c0,4.4,3,7.4,7.4,7.4c4.3,0,7.4-3.1,7.4-7.4    C476.6,207.9,473.5,204.7,469.2,204.7z M469.2,217.9c-3.3,0-5.6-2.3-5.6-5.7c0-3.4,2.4-5.8,5.6-5.8c3.2,0,5.6,2.5,5.6,5.8    C474.8,215.6,472.5,217.9,469.2,217.9z"/>
		<path id="XMLID_944_" class="st0" d="M485.3,206.5c1.6,0,3.1,0.6,4.1,1.6l0.1,0.1l1.2-1.2l-0.2-0.1c-1.4-1.4-3.3-2.2-5.3-2.2    c-4.4,0-7.5,3-7.5,7.4c0,4.3,3.1,7.4,7.5,7.4c2,0,3.9-0.8,5.3-2.2l0.1-0.1l-1.2-1.2l-0.1,0.1c-1.1,1.1-2.6,1.7-4.1,1.7    c-2.8,0-5.7-1.8-5.7-5.7S482.5,206.5,485.3,206.5z"/>
		<path id="XMLID_943_" class="st0" d="M492,200.6c0,0.9,0.7,1.3,1.3,1.3c0.7,0,1.3-0.5,1.3-1.3C494.7,198.8,492,198.8,492,200.6z"/>
		<rect id="XMLID_942_" x="492.4" y="204.9" class="st0" width="1.8" height="14.6"/>
		<path id="XMLID_939_" class="st0" d="M509.3,207.5c-1.2-1.7-3.2-2.7-5.6-2.7c-4.2,0-7.4,3.2-7.4,7.4c0,4.3,3.2,7.5,7.4,7.5    c2.3,0,4.2-1,5.6-2.8v2.5h1.8V205h-1.8V207.5z M503.7,217.9c-3.2,0-5.6-2.4-5.6-5.7c0-3.3,2.3-5.7,5.6-5.7c3.9,0,5.7,3,5.7,5.7    c0,1.5-0.5,2.9-1.4,3.9C507,217.3,505.5,217.9,503.7,217.9z"/>
		<rect id="XMLID_938_" x="513.8" y="199.1" class="st0" width="1.8" height="20.4"/>
		<polygon id="XMLID_937_" class="st0" points="532.6,213.4 531.1,217.1 529.7,213.4 526.3,205 524.4,205 530.1,219.1 527.4,225.4     529.3,225.4 538.1,205 536.2,205   "/>
		<path id="XMLID_898_" class="st0" d="M553.4,204.7c-4.2,0-7.4,3.2-7.4,7.5c0,4.4,3,7.5,7.4,7.5c2.5,0,4.9-1.1,6.3-2.8l0.1-0.2    l-1.3-1.1l-0.1,0.2c-1.1,1.4-3.3,2.1-4.9,2.1c-3,0-5.2-1.9-5.5-4.8h12.7l0-0.2c0.2-2.5-0.3-4.5-1.6-6    C557.6,205.5,555.7,204.7,553.4,204.7z M558.9,211.4h-11c0.4-3,2.6-5,5.5-5C556.7,206.4,558.8,208.3,558.9,211.4z"/>
		<path id="XMLID_897_" class="st0" d="M579.4,204.7c-2.3,0-4.3,1.2-5.2,3.1c-0.9-2-2.8-3.1-5.2-3.1c-1.9,0-3.4,0.8-4.4,2.1l0-1.8    h-1.7v14.5h1.8v-8.6c0-2.6,1.8-4.5,4.3-4.5c2.6,0,4.3,1.8,4.3,4.5v8.6h1.8v-8.6c0-2.7,1.8-4.5,4.3-4.5c2.5,0,4.3,1.8,4.3,4.4v8.7    h1.8v-8.7C585.5,207.2,583,204.7,579.4,204.7z"/>
		<path id="XMLID_894_" class="st0" d="M595.8,204.8c-2.5,0-4.6,1.1-5.9,3V205h-1.8v20.4h1.8v-8.6c1.2,1.9,3.3,3,5.6,3    c4.4,0,7.4-3,7.4-7.5C602.8,207.8,600,204.9,595.8,204.8z M595.4,206.5c2.7,0,5.6,1.5,5.6,5.7c0,4.3-2.9,5.8-5.6,5.8    c-3.1,0-5.5-2.5-5.5-5.7C589.9,208.9,592.2,206.5,595.4,206.5z"/>
		<path id="XMLID_893_" class="st0" d="M611.4,204.8c-2,0-3.6,0.8-4.5,2.1l0-2h-1.7v14.5h1.8v-8.4c0-2.5,2-4.5,4.5-4.5    c0.8,0,1.6,0.2,2.3,0.6l0.2,0.1l0.8-1.5l-0.2-0.1C613.5,205.1,612.5,204.8,611.4,204.8z"/>
		<path id="XMLID_890_" class="st0" d="M622.2,204.7c-4.2,0-7.4,3.2-7.4,7.5c0,4.4,3,7.5,7.4,7.5c2.5,0,4.9-1.1,6.3-2.8l0.1-0.2    l-1.3-1.1l-0.1,0.2c-1.1,1.4-3.3,2.1-4.9,2.1c-3,0-5.2-1.9-5.5-4.8h12.7l0-0.2c0.2-2.5-0.3-4.5-1.6-6    C626.5,205.5,624.5,204.7,622.2,204.7z M627.7,211.4h-11c0.4-3,2.6-5,5.5-5C625.6,206.4,627.6,208.3,627.7,211.4z"/>
		<path id="XMLID_889_" class="st0" d="M637.8,211.3l-0.5-0.1c-1.7-0.3-3.9-0.7-4-2.3c0-0.5,0.2-1,0.5-1.3c0.7-0.7,1.9-1.1,3.4-1.1    c1.6,0,3,0.2,4.4,1.4l0.1,0.1l1.1-1.2l-0.1-0.1c-1.4-1.3-3.2-1.9-5.4-1.9c-2,0-3.8,0.6-4.8,1.6c-0.7,0.7-1,1.6-1,2.6    c0,3.1,3,3.6,5.7,4c2.6,0.4,4.5,0.9,4.4,2.6c-0.1,2.2-3,2.5-4.2,2.5c-2.1,0-4-0.9-5-2.3l-0.1-0.2l-1.3,1.2l0.1,0.1    c1.2,1.8,3.6,2.9,6.4,2.9c1.4,0,5.9-0.3,6-4.1C643.6,212.3,640.3,211.7,637.8,211.3z"/>
		<path id="XMLID_886_" class="st0" d="M657.7,207.5c-1.2-1.7-3.2-2.7-5.6-2.7c-4.2,0-7.4,3.2-7.4,7.4c0,4.3,3.2,7.5,7.4,7.5    c2.3,0,4.2-1,5.6-2.8v2.5h1.8V205h-1.8V207.5z M652.1,217.9c-3.2,0-5.6-2.4-5.6-5.7c0-3.3,2.3-5.7,5.6-5.7c3.9,0,5.7,3,5.7,5.7    c0,1.5-0.5,2.9-1.4,3.9C655.3,217.3,653.8,217.9,652.1,217.9z"/>
		<path id="XMLID_885_" class="st0" d="M668.4,204.8c-2,0-3.6,0.8-4.5,2.1l0-2h-1.7v14.5h1.8v-8.4c0-2.5,2-4.5,4.5-4.5    c0.8,0,1.6,0.2,2.3,0.6l0.2,0.1l0.8-1.5l-0.2-0.1C670.6,205.1,669.5,204.8,668.4,204.8z"/>
		<path id="XMLID_884_" class="st0" d="M672.2,200.6c0,0.9,0.7,1.3,1.3,1.3c0.7,0,1.3-0.5,1.3-1.3    C674.9,198.8,672.2,198.8,672.2,200.6z"/>
		<rect id="XMLID_883_" x="672.6" y="204.9" class="st0" width="1.8" height="14.6"/>
		<path id="XMLID_880_" class="st0" d="M689.5,207.5c-1.2-1.7-3.2-2.7-5.6-2.7c-4.2,0-7.4,3.2-7.4,7.4c0,4.3,3.2,7.5,7.4,7.5    c2.3,0,4.2-1,5.6-2.8v2.5h1.8V205h-1.8V207.5z M683.9,217.9c-3.2,0-5.6-2.4-5.6-5.7c0-3.3,2.3-5.7,5.6-5.7c3.9,0,5.7,3,5.7,5.7    c0,1.5-0.5,2.9-1.4,3.9C687.2,217.3,685.7,217.9,683.9,217.9z"/>
		<rect id="XMLID_879_" x="694" y="199.1" class="st0" width="1.8" height="20.4"/>
		<path id="XMLID_878_" class="st0" d="M698.1,218.4c0,0.4,0.1,0.7,0.4,1c0.2,0.2,0.6,0.3,0.9,0.3c0.7,0,1.3-0.5,1.3-1.3    C700.7,216.7,698.1,216.7,698.1,218.4z"/>
	</g>
	<g id="XMLID_869_">
		<linearGradient id="XMLID_55_" gradientUnits="userSpaceOnUse" x1="60.2141" y1="31.5832" x2="165.919" y2="152.8657">
			<stop offset="0" style="stop-color:#1D4D0E"/>
			<stop offset="1" style="stop-color:#000000"/>
		</linearGradient>
		<path id="XMLID_876_" class="st1" d="M154,118.5c0.1-20.6-7.8-48-28.8-81.1l0,0c-4.8-5.5-10-11.2-15.7-17L89.6,0L69.7,20.4    c-5.9,6-11.3,11.9-16.3,17.7c14.5,1.1,27.4,8,36.2,18.5c37.5,38.4,49.9,69,49.7,89.1c0,0,0,0.1,0,0.1c0,12-4.4,23-11.7,31.4    c0,0.2,0,0.4-0.1,0.5c16.3-14.6,26.5-35.7,26.5-59C154,118.6,154,118.5,154,118.5z"/>
		<linearGradient id="XMLID_56_" gradientUnits="userSpaceOnUse" x1="162.505" y1="106.3368" x2="9.5146" y2="230.3981">
			<stop offset="0" style="stop-color:#66841F"/>
			<stop offset="0.4372" style="stop-color:#A9CF38"/>
			<stop offset="0.5075" style="stop-color:#B2D235"/>
			<stop offset="0.5779" style="stop-color:#9BC436"/>
			<stop offset="1" style="stop-color:#1D4D0E"/>
		</linearGradient>
		<path id="XMLID_167_" class="st2" d="M179.1,150.2c0.1-24.1-9.8-62.3-54-112.9c21.1,33.1,29,60.5,28.8,81.1c0,0.1,0,0.1,0,0.2    c0,19.9-7.4,38.1-19.7,52.2c-8.6,15.5-25.3,26-44.6,26c-22.3,0-41.2-14.1-48-33.7c5.3,36.4,32.5,65.6,68.8,73.4    c39.3-9.3,68.7-44.3,68.7-86C179.1,150.4,179.1,150.3,179.1,150.2z"/>
		<linearGradient id="XMLID_57_" gradientUnits="userSpaceOnUse" x1="48.5112" y1="221.4276" x2="82.1698" y2="56.7506">
			<stop offset="0" style="stop-color:#C1D82F"/>
			<stop offset="6.532663e-002" style="stop-color:#C8DA2B"/>
			<stop offset="0.1307" style="stop-color:#ABD037"/>
			<stop offset="1" style="stop-color:#000000"/>
		</linearGradient>
		<path id="XMLID_166_" class="st3" d="M41.8,163.8c-1.9-5.2-2.9-10.8-2.9-16.6c0,0,0-0.1,0-0.1c-0.1-20.4,12.4-51.6,50.6-90.6    C80.7,46,67.8,39.1,53.4,38C9.7,88.2-0.1,126.2,0,150.2c0,0.1,0,0.2,0,0.4C0,199.3,40.2,239,89.6,239c7.2,0,14.2-0.8,20.9-2.4    C74.5,228.8,47.4,199.9,41.8,163.8z"/>
		<g id="XMLID_871_">
			<linearGradient id="XMLID_58_" gradientUnits="userSpaceOnUse" x1="130.1479" y1="125.6491" x2="35.5699" y2="10.3009">
				<stop offset="0" style="stop-color:#86A72C"/>
				<stop offset="1" style="stop-color:#1D4D0E"/>
			</linearGradient>
			<path id="XMLID_873_" class="st4" d="M139.3,145.7c0,4.3-0.6,8.5-1.6,12.5c1.3-4.4,2-9,2-13.8c0,0,0-0.1,0-0.1     c0.1-20.1-12.2-50.7-49.7-89.1C81.3,44.9,68.7,38,54.5,36.8c-0.4,0.4-0.7,0.8-1.1,1.2c14.5,1.1,27.4,8,36.2,18.5     c37.5,38.4,49.9,69,49.7,89.1C139.3,145.6,139.3,145.6,139.3,145.7z"/>
			<linearGradient id="XMLID_59_" gradientUnits="userSpaceOnUse" x1="119.5404" y1="134.3466" x2="24.9623" y2="18.9984">
				<stop offset="0" style="stop-color:#86A72C"/>
				<stop offset="1" style="stop-color:#1D4D0E"/>
			</linearGradient>
			<path id="XMLID_872_" class="st5" d="M129.2,175.2c-0.5,0.7-1,1.3-1.6,2c0,0.2,0,0.4-0.1,0.5c11.2-10.1,19.6-23.3,23.7-38.2     C147.2,153.2,139.5,165.5,129.2,175.2z"/>
		</g>
	</g>
	<g id="XMLID_769_">
		<g id="XMLID_790_">
			<linearGradient id="XMLID_60_" gradientUnits="userSpaceOnUse" x1="408.3235" y1="37.4589" x2="408.3235" y2="109.4918">
				<stop offset="0" style="stop-color:#ADD137"/>
				<stop offset="1" style="stop-color:#86AB2F"/>
			</linearGradient>
			<path id="XMLID_794_" class="st6" d="M382.1,92c-1-3.3-1.6-6.8-1.6-10.5c0-19,15.4-34.4,34.4-34.4c9.1,0,17.7,3.4,24,9.7l8-7     c-8.4-8.5-19.7-13.3-32-13.3c-24.8,0-45,20.2-45,45c0,6.9,1.6,13.5,4.4,19.4C377.5,98.7,380.3,95.6,382.1,92z"/>
			<linearGradient id="XMLID_61_" gradientUnits="userSpaceOnUse" x1="457.8406" y1="40.4705" x2="457.8406" y2="138.3019">
				<stop offset="0" style="stop-color:#ADD137"/>
				<stop offset="1" style="stop-color:#86AB2F"/>
			</linearGradient>
			<path id="XMLID_791_" class="st7" d="M490,79.5c8.8-2.3,15.5-10.3,15.5-19.9c0-5.4-2.2-10.5-6.1-14.4c-3.9-3.9-9-6.1-14.4-6.1     h-29.9v30.7h-3.9h-28.7h-7.2v10.7h25.3v23.8c-6.7,7.4-15.9,11.6-25.9,11.6c-5.2,0-10.2-1.2-14.6-3.3c-2.3,2.9-5,5.5-7.9,7.8     c6.6,3.9,14.3,6.1,22.5,6.1c14.3,0,27.8-7.1,36.4-18.6v-28h3.9v45.3h10.4V80.1h9.6h2.8l32.9,45.3h12.5L490,79.5z M465.6,69.7     V49.6h19.5c5.6,0,10,4.5,10,10c0,5.6-4.5,10-10,10H465.6z"/>
		</g>
		<linearGradient id="XMLID_62_" gradientUnits="userSpaceOnUse" x1="238.8759" y1="39.9343" x2="238.8759" y2="138.0098">
			<stop offset="0" style="stop-color:#110C11"/>
			<stop offset="1" style="stop-color:#000000"/>
		</linearGradient>
		<path id="XMLID_789_" class="st8" d="M264.4,117c-2.4-2.4-4.6-5-6.4-7.7h-39.2V83.5h30.8c0-0.7-0.1-1.5-0.1-2.2    c0-4.8,0.7-9.5,2-14h-32.7V54.6h38.5c4-6.4,9.4-11.8,15.8-15.8h-70.5v86.4h72.8C271.3,123,267.6,120.3,264.4,117z"/>
		<path id="XMLID_788_" d="M316.7,105.3c-4.8,3.4-10.6,5.3-16.8,5.3c-16,0-29.1-13.1-29.1-29.2c0-16,13.1-29,29.1-29    c6.2,0,11.9,1.9,16.7,5.2c2.6-4.8,5.9-9,9.8-12.7c-2-1.4-4.1-2.7-6.2-3.8c-6.2-3.2-13.2-4.9-20.3-4.9c-24.9,0-45.3,20.3-45.3,45.2    c0,6.2,1.2,12,3.6,17.6c2.2,5.5,5.5,10.3,9.7,14.4c4.1,4.1,9,7.4,14.3,9.7c5.6,2.3,11.5,3.5,17.6,3.5c7,0,14-1.6,20.1-4.7    c2.3-1.1,4.4-2.4,6.4-3.9C322.6,114.3,319.2,110,316.7,105.3z"/>
		<linearGradient id="XMLID_63_" gradientUnits="userSpaceOnUse" x1="360.9594" y1="39.9343" x2="360.9594" y2="138.0098">
			<stop offset="0" style="stop-color:#110C11"/>
			<stop offset="1" style="stop-color:#000000"/>
		</linearGradient>
		<path id="XMLID_787_" class="st9" d="M399,57l-0.2,0.1c-4,2.6-7.3,6.2-9.6,10.4l-1.6,2.9c1.4,3.4,2.2,7.2,2.2,11.1    c0,16-13,29-28.9,29s-28.9-13-28.9-29c0-16.1,13-29.1,28.9-29.1c4.1,0,8,0.9,11.6,2.5l0.2-0.3c3-4.7,6.7-8.7,11-12.2    c-6.7-3.9-14.5-6.1-22.8-6.1c-24.9,0-45.2,20.3-45.2,45.3c0,24.9,20.3,45,45.2,45c25,0,45.3-20.1,45.3-45    C406.2,72.4,403.5,64,399,57z"/>
		<linearGradient id="XMLID_64_" gradientUnits="userSpaceOnUse" x1="290.5595" y1="39.9343" x2="290.5595" y2="138.0098">
			<stop offset="0" style="stop-color:#110C11"/>
			<stop offset="1" style="stop-color:#000000"/>
		</linearGradient>
		<path id="XMLID_786_" class="st10" d="M316.7,105.3c-4.8,3.4-10.6,5.3-16.8,5.3c-16,0-29.1-13.1-29.1-29.2c0-16,13.1-29,29.1-29    c6.2,0,11.9,1.9,16.7,5.2c2.6-4.8,5.9-9,9.8-12.7c-2-1.4-4.1-2.7-6.2-3.8c-6.2-3.2-13.2-4.9-20.3-4.9c-24.9,0-45.3,20.3-45.3,45.2    c0,6.2,1.2,12,3.6,17.6c2.2,5.5,5.5,10.3,9.7,14.4c4.1,4.1,9,7.4,14.3,9.7c5.6,2.3,11.5,3.5,17.6,3.5c7,0,14-1.6,20.1-4.7    c2.3-1.1,4.4-2.4,6.4-3.9C322.6,114.3,319.2,110,316.7,105.3z"/>
		<linearGradient id="XMLID_65_" gradientUnits="userSpaceOnUse" x1="538.5773" y1="37.8475" x2="538.5773" y2="138.6561">
			<stop offset="0" style="stop-color:#ADD137"/>
			<stop offset="1" style="stop-color:#86AB2F"/>
		</linearGradient>
		<polygon id="XMLID_785_" class="st11" points="565.8,49.6 565.8,39.1 511.3,39.1 511.3,104.3 527,125.3 564.7,125.3 564.7,114.7     522.2,114.7 522.2,80.5 543.8,80.5 543.8,69.8 522.2,69.8 522.2,49.6   "/>
		<linearGradient id="XMLID_66_" gradientUnits="userSpaceOnUse" x1="237.7576" y1="102.9161" x2="237.7576" y2="33.1627">
			<stop offset="0" style="stop-color:#4D4D4F"/>
			<stop offset="1" style="stop-color:#000000"/>
		</linearGradient>
		<path id="XMLID_784_" class="st12" d="M249.5,81.3c0-4.8,0.7-9.5,2-14h-32.7V54.6h38.5c4-6.4,9.4-11.8,15.8-15.8h-70.5v41.9    c4.5,1.7,9.9,3.5,16.3,5.3v-2.6h30.8C249.5,82.8,249.5,82.1,249.5,81.3z"/>
		<linearGradient id="XMLID_67_" gradientUnits="userSpaceOnUse" x1="599.2876" y1="37.8475" x2="599.2876" y2="138.6561">
			<stop offset="0" style="stop-color:#ADD137"/>
			<stop offset="1" style="stop-color:#86AB2F"/>
		</linearGradient>
		<polygon id="XMLID_783_" class="st13" points="572.1,125.3 625.4,125.3 625.4,114.7 582.9,114.7 582.9,80.5 604.5,80.5     604.5,69.8 582.9,69.8 582.9,49.6 626.5,49.6 626.5,39.1 572.1,39.1   "/>
		<linearGradient id="XMLID_68_" gradientUnits="userSpaceOnUse" x1="663.6345" y1="37.8475" x2="663.6345" y2="138.6561">
			<stop offset="0" style="stop-color:#ADD137"/>
			<stop offset="1" style="stop-color:#86AB2F"/>
		</linearGradient>
		<polygon id="XMLID_782_" class="st14" points="687.1,39.1 687.1,107.3 641.1,39.1 629.3,39.1 629.3,125.3 640.2,125.3 640.2,57.2     686.3,125.3 698,125.3 698,39.1   "/>
		<linearGradient id="XMLID_69_" gradientUnits="userSpaceOnUse" x1="471.1107" y1="112.6245" x2="449.8638" y2="24.981">
			<stop offset="0" style="stop-color:#ADD137"/>
			<stop offset="1" style="stop-color:#86AB2F"/>
		</linearGradient>
		<path id="XMLID_779_" class="st15" d="M490,79.5c8.8-2.3,15.5-10.3,15.5-19.9c0-5.4-2.2-10.5-6.1-14.4c-3.9-3.9-9-6.1-14.4-6.1    h-29.9v30.7h-3.9h-28.7h-7.2v10.7h25.3v16.5c3.5-0.3,7-0.5,10.5-0.8V80.1h3.9v15.9c3.4-0.3,6.9-0.6,10.4-0.9V80.1h9.6h2.8    l9.3,12.8c3.8-0.4,7.7-0.8,11.6-1.3L490,79.5z M465.6,69.7V49.6h19.5c5.6,0,10,4.5,10,10s-4.5,10-10,10H465.6z"/>
		<linearGradient id="XMLID_70_" gradientUnits="userSpaceOnUse" x1="604.1411" y1="80.5746" x2="582.8941" y2="-7.0689">
			<stop offset="0" style="stop-color:#ADD137"/>
			<stop offset="1" style="stop-color:#86AB2F"/>
		</linearGradient>
		<path id="XMLID_778_" class="st16" d="M604.5,69.8h-21.6V49.6h43.6V39.1h-54.5V82c10.6-1.6,21.4-3.3,32.5-5.1V69.8z"/>
		<linearGradient id="XMLID_71_" gradientUnits="userSpaceOnUse" x1="644.8116" y1="70.6936" x2="623.5647" y2="-16.9499">
			<stop offset="0" style="stop-color:#ADD137"/>
			<stop offset="1" style="stop-color:#86AB2F"/>
		</linearGradient>
		<path id="XMLID_777_" class="st17" d="M641.1,39.1h-11.9v33.4c3.6-0.6,7.2-1.3,10.9-1.9V57.2l8.1,12c3.9-0.7,7.7-1.4,11.7-2.2    L641.1,39.1z"/>
		<linearGradient id="XMLID_72_" gradientUnits="userSpaceOnUse" x1="694.5488" y1="58.6576" x2="673.3019" y2="-28.9859">
			<stop offset="0" style="stop-color:#ADD137"/>
			<stop offset="1" style="stop-color:#86AB2F"/>
		</linearGradient>
		<path id="XMLID_776_" class="st18" d="M698,39.1h-10.9v22.6c3.6-0.7,7.2-1.4,10.9-2.2V39.1z"/>
		<linearGradient id="XMLID_73_" gradientUnits="userSpaceOnUse" x1="290.5339" y1="102.9161" x2="290.5339" y2="33.1627">
			<stop offset="0" style="stop-color:#4D4D4F"/>
			<stop offset="1" style="stop-color:#000000"/>
		</linearGradient>
		<path id="XMLID_775_" class="st19" d="M326.4,44.8c-2-1.4-4.1-2.7-6.2-3.8c-6.2-3.2-13.2-4.9-20.3-4.9    c-24.9,0-45.3,20.3-45.3,45.2c0,4.2,0.6,8.3,1.7,12.2c5.7,0.9,11.9,1.8,18.5,2.6c-2.6-4.4-4.1-9.4-4.1-14.8c0-16,13.1-29,29.1-29    c6.2,0,11.9,1.9,16.7,5.2C319.2,52.8,322.5,48.5,326.4,44.8z"/>
		<g id="XMLID_772_">
			<linearGradient id="XMLID_74_" gradientUnits="userSpaceOnUse" x1="349.701" y1="102.9162" x2="349.701" y2="33.1627">
				<stop offset="0" style="stop-color:#4D4D4F"/>
				<stop offset="1" style="stop-color:#000000"/>
			</linearGradient>
			<path id="XMLID_774_" class="st20" d="M372.7,54.5c3-4.7,6.7-8.7,11-12.2c-6.7-3.9-14.5-6.1-22.8-6.1     c-24.9,0-45.2,20.3-45.2,45.3c0,6.4,1.4,12.6,3.8,18.1c6.2,0.3,12.6,0.5,19.3,0.7c-4.3-5.1-6.9-11.6-6.9-18.8     c0-16.1,13-29.1,28.9-29.1c4.1,0,8,0.9,11.6,2.5L372.7,54.5z"/>
			<linearGradient id="XMLID_75_" gradientUnits="userSpaceOnUse" x1="394.5981" y1="101.8872" x2="394.5981" y2="54.9288">
				<stop offset="0" style="stop-color:#4D4D4F"/>
				<stop offset="1" style="stop-color:#000000"/>
			</linearGradient>
			<path id="XMLID_773_" class="st21" d="M399,57l-0.2,0.1c-4,2.6-7.3,6.2-9.6,10.4l-1.6,2.9c1.4,3.4,2.2,7.2,2.2,11.1     c0,7.1-2.5,13.6-6.8,18.6c6.3-0.2,12.7-0.4,19.4-0.7c2.4-5.5,3.7-11.6,3.7-17.9C406.2,72.4,403.5,64,399,57z"/>
		</g>
		<linearGradient id="XMLID_76_" gradientUnits="userSpaceOnUse" x1="538.5773" y1="89.8863" x2="538.5773" y2="19.3931">
			<stop offset="0" style="stop-color:#ADD137"/>
			<stop offset="1" style="stop-color:#86AB2F"/>
		</linearGradient>
		<path id="XMLID_771_" class="st22" d="M522.2,80.5h21.6V69.8h-21.6V49.6h43.6V39.1h-54.5v49.7c2.5-0.2,6.4-0.4,10.9-0.7V80.5z"/>
		<linearGradient id="XMLID_77_" gradientUnits="userSpaceOnUse" x1="421.0992" y1="121.0621" x2="400.7122" y2="36.9658">
			<stop offset="0" style="stop-color:#ADD137"/>
			<stop offset="1" style="stop-color:#86AB2F"/>
		</linearGradient>
		<path id="XMLID_770_" class="st23" d="M414.9,36.5c-24.8,0-45,20.2-45,45c0,6.7,1.5,13.1,4.1,18.8c0.4,0,0.8,0,1.2,0    c2.9-2.2,5.3-5,7-8.3c-1-3.3-1.6-6.8-1.6-10.5c0-19,15.4-34.4,34.4-34.4c9.1,0,17.7,3.4,24,9.7l8-7    C438.5,41.3,427.1,36.5,414.9,36.5z"/>
	</g>
	<g id="XMLID_731_">
		<path id="XMLID_1119_" class="st24" d="M473.9,162.6l-0.7-0.1c-2.9-0.3-4.5-0.5-4.5-3.7c0-3.3,1.6-4,4.1-4c2.5,0,3.7,1,3.8,3.2    c0,0.2,0.2,0.3,0.3,0.3h1.3c0.1,0,0.2,0,0.2-0.1c0.1-0.1,0.1-0.2,0.1-0.3c-0.1-3.4-2-5.1-5.7-5.1c-4.2,0-6.1,1.9-6.1,5.9    c0,3.4,1.6,5.1,4.8,5.5c3.2,0.3,5.4,0.8,5.4,4.2c0,3.5-1.1,4.7-4.4,4.7c-2.7,0-4-1-4-3.3c0-0.2-0.2-0.3-0.3-0.3H467    c-0.2,0-0.3,0.2-0.3,0.3c0,3.5,2,5.3,5.9,5.3c3.2,0,6.5-0.8,6.5-6.7C479.1,165.2,477.1,163.1,473.9,162.6z"/>
		<path id="XMLID_1120_" class="st24" d="M491.9,172.9h-8.4v-8.6h7c0.2,0,0.3-0.2,0.3-0.3v-1.3c0-0.2-0.2-0.3-0.3-0.3h-7v-7.2h7.8    c0.2,0,0.3-0.2,0.3-0.3v-1.3c0-0.2-0.2-0.3-0.3-0.3h-9.5c-0.2,0-0.3,0.2-0.3,0.3v21.1c0,0.2,0.2,0.3,0.3,0.3h10.1    c0.2,0,0.3-0.2,0.3-0.3v-1.3C492.3,173.1,492.1,172.9,491.9,172.9z"/>
		<path id="XMLID_1221_" class="st24" d="M501.5,167.1c2.7-0.4,3.9-2.1,3.9-5.8v-1.6c0-4.7-1.5-6.5-5.4-6.5h-5.1    c-0.2,0-0.3,0.2-0.3,0.3v21.1c0,0.2,0.2,0.3,0.3,0.3h1.4c0.2,0,0.3-0.2,0.3-0.3v-7.4h2.5l4.2,7.6c0.1,0.1,0.2,0.2,0.3,0.2h1.7    c0.1,0,0.2-0.1,0.3-0.2c0.1-0.1,0.1-0.2,0-0.3L501.5,167.1z M496.6,155.3h3.3c2.9,0,3.3,1.1,3.3,4.4v1.6c0,3.2-0.6,3.9-3.3,3.9    h-3.3V155.3z"/>
		<path id="XMLID_1222_" class="st24" d="M518,153.2h-1.5c-0.2,0-0.3,0.1-0.3,0.3l-2.8,10.8l-1.6,6.7l-1.6-6.8l-2.7-10.8    c0-0.2-0.2-0.3-0.3-0.3h-1.5c-0.1,0-0.2,0-0.3,0.1c-0.1,0.1-0.1,0.2-0.1,0.3l5.4,21.1c0,0.2,0.2,0.3,0.3,0.3h1.5    c0.2,0,0.3-0.1,0.3-0.3l5.4-21.1c0-0.1,0-0.2-0.1-0.3C518.2,153.2,518.1,153.2,518,153.2z"/>
		<path id="XMLID_1223_" class="st24" d="M521.6,153.2h-1.4c-0.2,0-0.3,0.2-0.3,0.3v21.1c0,0.2,0.2,0.3,0.3,0.3h1.4    c0.2,0,0.3-0.2,0.3-0.3v-21.1C521.9,153.3,521.7,153.2,521.6,153.2z"/>
		<path id="XMLID_1224_" class="st24" d="M531,154.8c3.3,0,3.9,1.4,3.9,4.1c0,0.2,0.2,0.3,0.3,0.3h1.3c0.2,0,0.3-0.2,0.3-0.3    c0-4.3-1.6-6-5.9-6c-5.2,0-6.3,2.7-6.3,7.5v7.4c0,4.6,1,7.3,6.3,7.3c4.7,0,5.7-2.3,5.9-6c0-0.1,0-0.2-0.1-0.2    c-0.1-0.1-0.2-0.1-0.2-0.1h-1.3c-0.2,0-0.3,0.1-0.3,0.3c-0.1,3-0.8,4.1-3.9,4.1c-3.8,0-4.2-1.7-4.2-5.4v-7.5    C526.8,156.9,527,154.8,531,154.8z"/>
		<path id="XMLID_1225_" class="st24" d="M549.7,172.9h-8.4v-8.6h7c0.2,0,0.3-0.2,0.3-0.3v-1.3c0-0.2-0.2-0.3-0.3-0.3h-7v-7.2h7.8    c0.2,0,0.3-0.2,0.3-0.3v-1.3c0-0.2-0.2-0.3-0.3-0.3h-9.5c-0.2,0-0.3,0.2-0.3,0.3v21.1c0,0.2,0.2,0.3,0.3,0.3h10.1    c0.2,0,0.3-0.2,0.3-0.3v-1.3C550.1,173.1,549.9,172.9,549.7,172.9z"/>
		<path id="XMLID_1226_" class="st24" d="M558.7,162.6l-0.7-0.1c-2.9-0.3-4.5-0.5-4.5-3.7c0-3.3,1.6-4,4.1-4c2.5,0,3.7,1,3.8,3.2    c0,0.2,0.2,0.3,0.3,0.3h1.3c0.1,0,0.2,0,0.2-0.1c0.1-0.1,0.1-0.2,0.1-0.3c-0.1-3.4-2-5.1-5.7-5.1c-4.2,0-6.1,1.9-6.1,5.9    c0,3.4,1.6,5.1,4.8,5.5c3.2,0.3,5.4,0.8,5.4,4.2c0,3.5-1.1,4.7-4.4,4.7c-2.7,0-4-1-4-3.3c0-0.2-0.2-0.3-0.3-0.3h-1.3    c-0.2,0-0.3,0.2-0.3,0.3c0,3.5,2,5.3,5.9,5.3c3.2,0,6.5-0.8,6.5-6.7C563.8,165.2,561.9,163.1,558.7,162.6z"/>
		<path id="XMLID_1227_" class="st24" d="M579.7,162.6l-0.7-0.1c-2.9-0.3-4.5-0.5-4.5-3.7c0-3.3,1.6-4,4.1-4c2.5,0,3.7,1,3.8,3.2    c0,0.2,0.2,0.3,0.3,0.3h1.3c0.1,0,0.2,0,0.2-0.1c0.1-0.1,0.1-0.2,0.1-0.3c-0.1-3.4-2-5.1-5.7-5.1c-4.2,0-6.1,1.9-6.1,5.9    c0,3.4,1.6,5.1,4.8,5.5c3.2,0.3,5.4,0.8,5.4,4.2c0,3.5-1.1,4.7-4.4,4.7c-2.7,0-4-1-4-3.3c0-0.2-0.2-0.3-0.3-0.3h-1.3    c-0.2,0-0.3,0.2-0.3,0.3c0,3.5,2,5.3,5.9,5.3c3.2,0,6.5-0.8,6.5-6.7C584.8,165.2,582.9,163.1,579.7,162.6z"/>
		<path id="XMLID_1228_" class="st24" d="M586.7,173.7c0,0.5,0.2,0.8,0.4,1c0.2,0.2,0.6,0.3,0.9,0.3c0.7,0,1.4-0.5,1.4-1.3    C589.4,172,586.7,172,586.7,173.7z"/>
		<path id="XMLID_1231_" class="st24" d="M597.6,153.4c0-0.2-0.2-0.3-0.3-0.3h-1.5c-0.2,0-0.3,0.1-0.3,0.3l-5.4,21.1    c0,0.1,0,0.2,0.1,0.3c0.1,0.1,0.2,0.1,0.3,0.1h1.4c0.2,0,0.3-0.1,0.3-0.3l1.3-4.9h6.2l1.3,4.9c0,0.1,0.2,0.3,0.3,0.3h1.4    c0.1,0,0.2,0,0.3-0.1c0.1-0.1,0.1-0.2,0.1-0.3L597.6,153.4z M599.1,167.8h-5.2l2.7-10.9L599.1,167.8z"/>
		<path id="XMLID_1232_" class="st24" d="M603.9,173.7c0,0.5,0.2,0.8,0.4,1c0.2,0.2,0.6,0.3,0.9,0.3c0.7,0,1.4-0.5,1.4-1.3    C606.6,172,603.9,172,603.9,173.7z"/>
		<path id="XMLID_1233_" class="st24" d="M615.4,162.6l-0.7-0.1c-2.9-0.3-4.5-0.5-4.5-3.7c0-3.3,1.6-4,4.1-4c2.5,0,3.7,1,3.8,3.2    c0,0.2,0.2,0.3,0.3,0.3h1.3c0.1,0,0.2,0,0.2-0.1c0.1-0.1,0.1-0.2,0.1-0.3c-0.1-3.4-2-5.1-5.7-5.1c-4.2,0-6.1,1.9-6.1,5.9    c0,3.4,1.6,5.1,4.8,5.5c3.2,0.3,5.4,0.8,5.4,4.2c0,3.5-1.1,4.7-4.4,4.7c-2.7,0-4-1-4-3.3c0-0.2-0.2-0.3-0.3-0.3h-1.3    c-0.2,0-0.3,0.2-0.3,0.3c0,3.5,2,5.3,5.9,5.3c3.2,0,6.5-0.8,6.5-6.7C620.5,165.2,618.6,163.1,615.4,162.6z"/>
		<path id="XMLID_1234_" class="st24" d="M637.8,165.1h-7.9c-0.2,0-0.3,0.2-0.3,0.3v1.2c0,0.2,0.2,0.3,0.3,0.3h7.9    c0.2,0,0.3-0.2,0.3-0.3v-1.2C638.1,165.2,638,165.1,637.8,165.1z"/>
		<path id="XMLID_1235_" class="st24" d="M658.2,172.9h-8.4v-8.6h7c0.2,0,0.3-0.2,0.3-0.3v-1.3c0-0.2-0.2-0.3-0.3-0.3h-7v-7.2h7.8    c0.2,0,0.3-0.2,0.3-0.3v-1.3c0-0.2-0.2-0.3-0.3-0.3h-9.5c-0.2,0-0.3,0.2-0.3,0.3v21.1c0,0.2,0.2,0.3,0.3,0.3h10.1    c0.2,0,0.3-0.2,0.3-0.3v-1.3C658.5,173.1,658.3,172.9,658.2,172.9z"/>
		<path id="XMLID_1236_" class="st24" d="M667.1,162.6l-0.7-0.1c-2.9-0.3-4.5-0.5-4.5-3.7c0-3.3,1.6-4,4.1-4c2.5,0,3.7,1,3.8,3.2    c0,0.2,0.2,0.3,0.3,0.3h1.3c0.1,0,0.2,0,0.2-0.1c0.1-0.1,0.1-0.2,0.1-0.3c-0.1-3.4-2-5.1-5.7-5.1c-4.2,0-6.1,1.9-6.1,5.9    c0,3.4,1.6,5.1,4.8,5.5c3.2,0.3,5.4,0.8,5.4,4.2c0,3.5-1.1,4.7-4.4,4.7c-2.7,0-4-1-4-3.3c0-0.2-0.2-0.3-0.3-0.3h-1.3    c-0.2,0-0.3,0.2-0.3,0.3c0,3.5,2,5.3,5.9,5.3c3.2,0,6.5-0.8,6.5-6.7C672.3,165.2,670.3,163.1,667.1,162.6z"/>
		<path id="XMLID_1239_" class="st24" d="M680.1,153.2h-5.1c-0.2,0-0.3,0.2-0.3,0.3v21.1c0,0.2,0.2,0.3,0.3,0.3h1.4    c0.2,0,0.3-0.2,0.3-0.3v-7.1h3.3c3.9,0,5.4-1.8,5.4-6.3v-1.8C685.5,154.2,683.5,153.2,680.1,153.2z M680.1,165.5h-3.3v-10.4h3.3    c2.9,0,3.3,1.1,3.3,4.4v1.7C683.5,164.6,682.7,165.5,680.1,165.5z"/>
	</g>
	<g id="XMLID_1153_">
		<path id="XMLID_1325_" class="st25" d="M246.8,167.1c2.7-0.4,3.9-2.1,3.9-5.8v-1.6c0-4.7-1.5-6.5-5.4-6.5h-5.1    c-0.2,0-0.3,0.2-0.3,0.3v21.1c0,0.2,0.2,0.3,0.3,0.3h1.4c0.2,0,0.3-0.2,0.3-0.3v-7.4h2.5l4.2,7.6c0.1,0.1,0.2,0.2,0.3,0.2h1.7    c0.1,0,0.2-0.1,0.3-0.2c0.1-0.1,0.1-0.2,0-0.3L246.8,167.1z M242,155.3h3.3c2.9,0,3.3,1.1,3.3,4.4v1.6c0,3.2-0.6,3.9-3.3,3.9H242    V155.3z"/>
		<path id="XMLID_1326_" class="st25" d="M263.3,172.9h-8.4v-8.6h7c0.2,0,0.3-0.2,0.3-0.3v-1.3c0-0.2-0.2-0.3-0.3-0.3h-7v-7.2h7.8    c0.2,0,0.3-0.2,0.3-0.3v-1.3c0-0.2-0.2-0.3-0.3-0.3h-9.5c-0.2,0-0.3,0.2-0.3,0.3v21.1c0,0.2,0.2,0.3,0.3,0.3h10.1    c0.2,0,0.3-0.2,0.3-0.3v-1.3C263.6,173.1,263.5,172.9,263.3,172.9z"/>
		<path id="XMLID_1327_" class="st25" d="M271.6,154.8c3.3,0,3.9,1.4,3.9,4.1c0,0.2,0.2,0.3,0.3,0.3h1.3c0.2,0,0.3-0.2,0.3-0.3    c0-4.3-1.6-6-5.9-6c-5.2,0-6.3,2.7-6.3,7.5v7.4c0,4.6,1,7.3,6.3,7.3c4.7,0,5.7-2.3,5.9-6c0-0.1,0-0.2-0.1-0.2    c-0.1-0.1-0.2-0.1-0.2-0.1h-1.3c-0.2,0-0.3,0.1-0.3,0.3c-0.1,3-0.8,4.1-3.9,4.1c-3.8,0-4.2-1.7-4.2-5.4v-7.5    C267.4,156.9,267.6,154.8,271.6,154.8z"/>
		<path id="XMLID_1328_" class="st25" d="M289,153.2h-1.6c-0.1,0-0.3,0.1-0.3,0.2l-2,5.1l-1.6,4.5l-1.6-4.5l-1.9-5.1    c-0.1-0.1-0.2-0.2-0.3-0.2h-1.6c-0.1,0-0.2,0.1-0.3,0.1c-0.1,0.1-0.1,0.2,0,0.3l4.6,12v8.9c0,0.2,0.2,0.3,0.3,0.3h1.5    c0.2,0,0.3-0.2,0.3-0.3v-8.9l4.7-12c0-0.1,0-0.2,0-0.3C289.2,153.2,289.1,153.2,289,153.2z"/>
		<path id="XMLID_1329_" class="st25" d="M296.4,154.8c3.3,0,3.9,1.4,3.9,4.1c0,0.2,0.2,0.3,0.3,0.3h1.3c0.2,0,0.3-0.2,0.3-0.3    c0-4.3-1.6-6-5.9-6c-5.2,0-6.3,2.7-6.3,7.5v7.4c0,4.6,1,7.3,6.3,7.3c4.7,0,5.7-2.3,5.9-6c0-0.1,0-0.2-0.1-0.2    c-0.1-0.1-0.2-0.1-0.2-0.1h-1.3c-0.2,0-0.3,0.1-0.3,0.3c-0.1,3-0.8,4.1-3.9,4.1c-3.8,0-4.2-1.7-4.2-5.4v-7.5    C292.2,156.9,292.5,154.8,296.4,154.8z"/>
		<path id="XMLID_1330_" class="st25" d="M314.6,173h-7.8v-19.5c0-0.2-0.2-0.3-0.3-0.3h-1.4c-0.2,0-0.3,0.2-0.3,0.3v21.1    c0,0.2,0.2,0.3,0.3,0.3h9.5c0.2,0,0.3-0.2,0.3-0.3v-1.3C314.9,173.1,314.8,173,314.6,173z"/>
		<path id="XMLID_1331_" class="st25" d="M318.6,153.2h-1.4c-0.2,0-0.3,0.2-0.3,0.3v21.1c0,0.2,0.2,0.3,0.3,0.3h1.4    c0.2,0,0.3-0.2,0.3-0.3v-21.1C319,153.3,318.8,153.2,318.6,153.2z"/>
		<path id="XMLID_1332_" class="st25" d="M332.6,153.2h-1.4c-0.2,0-0.3,0.2-0.3,0.3v10.6l0.2,5.8l-6.8-16.5    c-0.1-0.1-0.2-0.2-0.3-0.2h-1.4c-0.2,0-0.3,0.2-0.3,0.3v21c0,0.2,0.2,0.3,0.3,0.3h1.4c0.2,0,0.3-0.2,0.3-0.3v-11.3l-0.1-4.9    l6.6,16.3c0.1,0.1,0.2,0.2,0.3,0.2h1.6c0.2,0,0.3-0.2,0.3-0.3v-21C332.9,153.3,332.8,153.2,332.6,153.2z"/>
		<path id="XMLID_1333_" class="st25" d="M348.2,163.3h-6.1c-0.2,0-0.3,0.2-0.3,0.3v1.2c0,0.2,0.2,0.3,0.3,0.3h4.5v3    c0,3.3-0.7,4.8-4.5,4.8c-4.2,0-4.4-1.9-4.4-5.3v-7.4c0-3.7,0.2-5.4,4.4-5.4c3.3,0,4.3,1,4.4,4.3c0,0.2,0.2,0.3,0.3,0.3    c0,0,0,0,0,0l1.2,0c0.1,0,0.2,0,0.2-0.1c0.1-0.1,0.1-0.2,0.1-0.2c-0.1-3.8-1.2-6.2-6.3-6.2c-5.5,0-6.5,2.5-6.5,7.4v7.4    c0,4.7,1.1,7.4,6.5,7.4c5.4,0,6.4-2.5,6.4-6.9v-4.5C348.6,163.5,348.4,163.3,348.2,163.3z"/>
		<path id="XMLID_1334_" class="st25" d="M364.7,162.6l-0.7-0.1c-2.9-0.3-4.5-0.5-4.5-3.7c0-3.3,1.6-4,4.1-4c2.5,0,3.7,1,3.8,3.2    c0,0.2,0.2,0.3,0.3,0.3h1.3c0.1,0,0.2,0,0.2-0.1c0.1-0.1,0.1-0.2,0.1-0.3c-0.1-3.4-2-5.1-5.7-5.1c-4.2,0-6.1,1.9-6.1,5.9    c0,3.4,1.6,5.1,4.8,5.5c3.2,0.3,5.4,0.8,5.4,4.2c0,3.5-1.1,4.7-4.4,4.7c-2.7,0-4-1-4-3.3c0-0.2-0.2-0.3-0.3-0.3h-1.3    c-0.2,0-0.3,0.2-0.3,0.3c0,3.5,2,5.3,5.9,5.3c3.2,0,6.5-0.8,6.5-6.7C369.8,165.2,367.9,163.1,364.7,162.6z"/>
		<path id="XMLID_1335_" class="st25" d="M371.7,173.7c0,0.5,0.2,0.8,0.4,1c0.2,0.2,0.6,0.3,0.9,0.3c0.7,0,1.4-0.5,1.4-1.3    C374.4,172,371.7,172,371.7,173.7z"/>
		<path id="XMLID_1338_" class="st25" d="M382.6,153.4c0-0.2-0.2-0.3-0.3-0.3h-1.5c-0.2,0-0.3,0.1-0.3,0.3l-5.4,21.1    c0,0.1,0,0.2,0.1,0.3c0.1,0.1,0.2,0.1,0.3,0.1h1.4c0.2,0,0.3-0.1,0.3-0.3l1.3-4.9h6.2l1.3,4.9c0,0.1,0.2,0.3,0.3,0.3h1.4    c0.1,0,0.2,0,0.3-0.1c0.1-0.1,0.1-0.2,0.1-0.3L382.6,153.4z M384.1,167.8h-5.2l2.7-10.9L384.1,167.8z"/>
		<path id="XMLID_1339_" class="st25" d="M388.9,173.7c0,0.5,0.2,0.8,0.4,1c0.2,0.2,0.6,0.3,0.9,0.3c0.7,0,1.4-0.5,1.4-1.3    C391.6,172,388.9,172,388.9,173.7z"/>
		<path id="XMLID_1340_" class="st25" d="M400.4,162.6l-0.7-0.1c-2.9-0.3-4.5-0.5-4.5-3.7c0-3.3,1.6-4,4.1-4c2.5,0,3.7,1,3.8,3.2    c0,0.2,0.2,0.3,0.3,0.3h1.3c0.1,0,0.2,0,0.2-0.1c0.1-0.1,0.1-0.2,0.1-0.3c-0.1-3.4-2-5.1-5.7-5.1c-4.2,0-6.1,1.9-6.1,5.9    c0,3.4,1.6,5.1,4.8,5.5c3.2,0.3,5.4,0.8,5.4,4.2c0,3.5-1.1,4.7-4.4,4.7c-2.7,0-4-1-4-3.3c0-0.2-0.2-0.3-0.3-0.3h-1.3    c-0.2,0-0.3,0.2-0.3,0.3c0,3.5,2,5.3,5.9,5.3c3.2,0,6.5-0.8,6.5-6.7C405.5,165.2,403.6,163.1,400.4,162.6z"/>
	</g>
</g>
</svg>